module gitlab.com/siriusfreak/lecture-7-demo/pkg/lecture-7-demo

go 1.16

require (
	github.com/grpc-ecosystem/grpc-gateway/v2 v2.5.0
	google.golang.org/genproto v0.0.0-20210816143620-e15ff196659d
	google.golang.org/grpc v1.40.0
	google.golang.org/protobuf v1.27.1
)
